…
The query results in a very confusing data.frame with 1999 columns and 2
rows! This happens because there is a building count column for each
combination of boundary polygon and number of levels, while the two
requested timestamps are in the rows. Fortunately, there is the `tidyr`
package to do its magic and pivot this table into a long format with one
value per row:

``` r
library(tidyr)

building_levels |>
    pivot_longer(-timestamp, names_to = c("id", "levels"), names_sep = "_")
#> # A tibble: 3,996 x 4
#>    timestamp           id    levels            value
#>    <dttm>              <chr> <chr>             <dbl>
#>  1 2015-01-01 00:00:00 DE241 remainder          4311
#>  2 2015-01-01 00:00:00 DE241 building.levels.1  6347
#>  3 2015-01-01 00:00:00 DE241 building.levels.2  6727
#>  4 2015-01-01 00:00:00 DE241 building.levels.3  2787
#>  5 2015-01-01 00:00:00 DE241 building.levels.4   745
#>  6 2015-01-01 00:00:00 DE241 building.levels.5    96
#>  7 2015-01-01 00:00:00 DE241 building.levels.6    38
#>  8 2015-01-01 00:00:00 DE241 building.levels.9     7
#>  9 2015-01-01 00:00:00 DE241 building.levels.0     0
#> 10 2015-01-01 00:00:00 DE241 building.levels.7    32
#> # ... with 3,986 more rows
```
…
